Chapter 8 Query data from NILS: blueberry and mountain violet occurrence in alpine region over time | A general workflow for analysis of primary biodiversity data
…
pySf
#> Simple feature collection with 1450 features and 4 fields
#> Geometry type: POINT
#> Dimension:     XY
#> Bounding box:  xmin: 12.1 ymin: 61.6 xmax: 22.2 ymax: 69
#> Geodetic CRS:  WGS 84
#> # A tibble: 1,450 × 5
#> # Rowwise: 
#>   uuid    coordNS coordEW        geom elevation
#> * <fct>     <dbl>   <dbl> <POINT [°]>     <dbl>
#> 1 326-1  6832355. 380670. (12.8 61.6)      840.
#> 2 326-10 6832364. 381420. (12.8 61.6)      786.
#> 3 326-11 6832361. 381170. (12.8 61.6)      793.
#> 4 326-12 6832358. 380920. (12.8 61.6)      817.
#> 5 326-2  6832605. 380667. (12.8 61.6)      808.
#> 6 326-3  6832854. 380664. (12.7 61.6)      794.
#> # ℹ 1,444 more rows
…
